…
To select columns of a dataframe, use `select()`. The first argument to this
function is the dataframe (`movieSerie`), and the subsequent arguments are the
columns to keep, separated by commas. Alternatively, if you are selecting
columns adjacent to each other, you can use a `:` to select a range of columns,
read as "select columns from ___ to ___."


```r
# to select columns throughout the dataframe
select(movieSerie, title, description)
```

```{.output}
# A tibble: 5,850 × 2
   title                               description                              
   <chr>                               <chr>                                    
 1 Five Came Back: The Reference Films "This collection includes 12 World War I…
 2 Taxi Driver                         "A mentally unstable Vietnam War veteran…
 3 Deliverance                         "Intent on seeing the Cahulawassee River…
 4 Monty Python and the Holy Grail     "King Arthur, accompanied by his squire,…
 5 The Dirty Dozen                     "12 American military prisoners in World…
 6 Monty Python's Flying Circus        "A British sketch comedy series with the…
 7 Life of Brian                       "Brian Cohen is an average young Jewish …
 8 Dirty Harry                         "When a madman dubbed 'Scorpio' terroriz…
 9 Bonnie and Clyde                    "In the 1930s, bored waitress Bonnie Par…
10 The Blue Lagoon                     "Two small children and a ship's cook su…
# ℹ 5,840 more rows
```

```r
# to select a series of connected columns
select(movieSerie, title:description)
```

```{.output}
# A tibble: 5,850 × 4
   title                               type  genre         description          
   <chr>                               <chr> <chr>         <chr>                
 1 Five Came Back: The Reference Films SHOW  documentation "This collection inc…
 2 Taxi Driver                         MOVIE drama         "A mentally unstable…
 3 Deliverance                         MOVIE drama         "Intent on seeing th…
 4 Monty Python and the Holy Grail     MOVIE fantasy       "King Arthur, accomp…
 5 The Dirty Dozen                     MOVIE war           "12 American militar…
 6 Monty Python's Flying Circus        SHOW  comedy        "A British sketch co…
 7 Life of Brian                       MOVIE comedy        "Brian Cohen is an a…
 8 Dirty Harry                         MOVIE thriller      "When a madman dubbe…
 9 Bonnie and Clyde                    MOVIE crime         "In the 1930s, bored…
10 The Blue Lagoon                     MOVIE romance       "Two small children …
# ℹ 5,840 more rows
```

To choose rows based on specific criteria, we can use the `filter()` function.
The argument after the dataframe is the condition we want our final
dataframe to adhere to (e.g. age_certification is PG-13): 


```r
# filters observations where age_certification name is "PG-13" 
filter(movieSerie, age_certification == "PG-13")
```

```{.output}
# A tibble: 451 × 14
   id       title type  genre description release_year age_certification runtime
   <chr>    <chr> <chr> <chr> <chr>              <dbl> <chr>               <dbl>
 1 tm67378  The … MOVIE west… "An arroga…         1966 PG-13                 117
 2 tm145608 Awak… MOVIE drama "Dr. Malco…         1990 PG-13                 120
 3 tm147710 Nati… MOVIE come… "It's Chri…         1989 PG-13                  97
 4 tm142895 Lean… MOVIE drama "When prin…         1989 PG-13                 105
 5 tm107744 Miss… MOVIE thri… "When Etha…         1996 PG-13                 110
 6 tm122434 Forr… MOVIE drama "A man wit…         1994 PG-13                 142
 7 tm191110 Tita… MOVIE drama "101-year-…         1997 PG-13                 194
 8 tm27395  Miss… MOVIE thri… "With comp…         2000 PG-13                 123
 9 tm113513 Dumb… MOVIE come… "Lloyd and…         1994 PG-13                 107
10 tm192405 Gatt… MOVIE scifi "In a futu…         1997 PG-13                 106
# ℹ 441 more rows
# ℹ 6 more variables: seasons <dbl>, imdb_id <chr>, imdb_score <dbl>,
#   imdb_votes <dbl>, tmdb_popularity <dbl>, tmdb_score <dbl>
```
…
```r
# filters observations with "and" operator (comma)
# output dataframe satisfies ALL specified conditions
filter(movieSerie, age_certification == "PG-13",
                   runtime > 100,
                   imdb_score < 6.0)
```

```{.output}
# A tibble: 60 × 14
   id       title type  genre description release_year age_certification runtime
   <chr>    <chr> <chr> <chr> <chr>              <dbl> <chr>               <dbl>
 1 tm12499  The … MOVIE thri… "Angela Be…         1995 PG-13                 114
 2 tm93055  Grow… MOVIE come… "After the…         2010 PG-13                 102
 3 tm159901 Miss… MOVIE acti… "After her…         2005 PG-13                 115
 4 tm88045  How … MOVIE come… "After bei…         2010 PG-13                 121
 5 tm700    10,0… MOVIE acti… "A prehist…         2008 PG-13                 109
 6 tm39487  Catc… MOVIE drama "Gray Whee…         2006 PG-13                 111
 7 tm130574 Did … MOVIE come… "In New Yo…         2009 PG-13                 103
 8 tm148041 What… MOVIE come… "What's Yo…         2009 PG-13                 192
 9 tm237621 The … MOVIE horr… "Two buddi…         2009 PG-13                 122
10 tm59289  Rowd… MOVIE acti… "A small-t…         2012 PG-13                 143
# ℹ 50 more rows
# ℹ 6 more variables: seasons <dbl>, imdb_id <chr>, imdb_score <dbl>,
#   imdb_votes <dbl>, tmdb_popularity <dbl>, tmdb_score <dbl>
```

We can also form "and" statements with the `&` operator instead of commas:


```r
# filters observations with "&" logical operator
# output dataframe satisfies ALL specified conditions
filter(movieSerie, age_certification == "PG-13" & 
                   runtime > 100 & 
                   imdb_score < 6.0)
```

```{.output}
# A tibble: 60 × 14
   id       title type  genre description release_year age_certification runtime
   <chr>    <chr> <chr> <chr> <chr>              <dbl> <chr>               <dbl>
 1 tm12499  The … MOVIE thri… "Angela Be…         1995 PG-13                 114
 2 tm93055  Grow… MOVIE come… "After the…         2010 PG-13                 102
 3 tm159901 Miss… MOVIE acti… "After her…         2005 PG-13                 115
 4 tm88045  How … MOVIE come… "After bei…         2010 PG-13                 121
 5 tm700    10,0… MOVIE acti… "A prehist…         2008 PG-13                 109
 6 tm39487  Catc… MOVIE drama "Gray Whee…         2006 PG-13                 111
 7 tm130574 Did … MOVIE come… "In New Yo…         2009 PG-13                 103
 8 tm148041 What… MOVIE come… "What's Yo…         2009 PG-13                 192
 9 tm237621 The … MOVIE horr… "Two buddi…         2009 PG-13                 122
10 tm59289  Rowd… MOVIE acti… "A small-t…         2012 PG-13                 143
# ℹ 50 more rows
# ℹ 6 more variables: seasons <dbl>, imdb_id <chr>, imdb_score <dbl>,
#   imdb_votes <dbl>, tmdb_popularity <dbl>, tmdb_score <dbl>
```

In an "or" statement, observations must meet *at least one* of the specified conditions. 
To form "or" statements we use the logical operator for "or," which is the vertical bar (|): 


```r
# filters observations with "|" logical operator
# output dataframe satisfies AT LEAST ONE of the specified conditions
filter(movieSerie, age_certification == "PG-13" | 
                   runtime > 100 | 
                   imdb_score < 6.0)
```

```{.output}
# A tibble: 2,852 × 14
   id       title type  genre description release_year age_certification runtime
   <chr>    <chr> <chr> <chr> <chr>              <dbl> <chr>               <dbl>
 1 tm84618  Taxi… MOVIE drama A mentally…         1976 "R"                   114
 2 tm154986 Deli… MOVIE drama Intent on …         1972 "R"                   109
 3 tm120801 The … MOVIE war   12 America…         1967 ""                    150
 4 tm14873  Dirt… MOVIE thri… When a mad…         1971 "R"                   102
 5 tm119281 Bonn… MOVIE crime In the 193…         1967 "R"                   110
 6 tm98978  The … MOVIE roma… Two small …         1980 "R"                   104
 7 tm44204  The … MOVIE acti… A team of …         1961 ""                    158
 8 tm67378  The … MOVIE west… An arrogan…         1966 "PG-13"               117
 9 tm16479  Whit… MOVIE roma… Two talent…         1954 ""                    115
10 tm89386  Hitl… MOVIE hist… A keen chr…         1977 "PG"                  150
# ℹ 2,842 more rows
# ℹ 6 more variables: seasons <dbl>, imdb_id <chr>, imdb_score <dbl>,
#   imdb_votes <dbl>, tmdb_popularity <dbl>, tmdb_score <dbl>
```
…
```r
movieSerie %>%
    filter(age_certification == "PG-13") %>%
    select(title,description)
```

```{.output}
# A tibble: 451 × 2
   title                                 description                            
   <chr>                                 <chr>                                  
 1 The Professionals                     "An arrogant Texas millionaire hires f…
 2 Awakenings                            "Dr. Malcolm Sayer, a shy research phy…
 3 National Lampoon's Christmas Vacation "It's Christmastime, and the Griswolds…
 4 Lean On Me                            "When principal Joe Clark takes over d…
 5 Mission: Impossible                   "When Ethan Hunt, the leader of a crac…
 6 Forrest Gump                          "A man with a low IQ has accomplished …
 7 Titanic                               "101-year-old Rose DeWitt Bukater tell…
 8 Mission: Impossible II                "With computer genius Luther Stickell …
 9 Dumb and Dumber                       "Lloyd and Harry are two men whose stu…
10 Gattaca                               "In a future society in the era of ind…
# ℹ 441 more rows
```
…
If we want to create a new object with this smaller version of the data, we
can assign it a new name:


```r
movieSerie_ch <- movieSerie %>%
    filter(age_certification == "PG-13") %>%
    select(title,description)

movieSerie_ch
```

```{.output}
# A tibble: 451 × 2
   title                                 description                            
   <chr>                                 <chr>                                  
 1 The Professionals                     "An arrogant Texas millionaire hires f…
 2 Awakenings                            "Dr. Malcolm Sayer, a shy research phy…
 3 National Lampoon's Christmas Vacation "It's Christmastime, and the Griswolds…
 4 Lean On Me                            "When principal Joe Clark takes over d…
 5 Mission: Impossible                   "When Ethan Hunt, the leader of a crac…
 6 Forrest Gump                          "A man with a low IQ has accomplished …
 7 Titanic                               "101-year-old Rose DeWitt Bukater tell…
 8 Mission: Impossible II                "With computer genius Luther Stickell …
 9 Dumb and Dumber                       "Lloyd and Harry are two men whose stu…
10 Gattaca                               "In a future society in the era of ind…
# ℹ 441 more rows
```
…
::::

:::: solution

## Solution


```r
movieSerie %>%
     filter(release_year > 1980) %>%
     select(title, runtime, age_certification)
```

```{.output}
# A tibble: 5,815 × 3
   title                       runtime age_certification
   <chr>                         <dbl> <chr>            
 1 Seinfeld                         24 TV-PG            
 2 GoodFellas                      145 R                
 3 Full Metal Jacket               117 R                
 4 Once Upon a Time in America     139 R                
 5 When Harry Met Sally...          96 R                
 6 A Nightmare on Elm Street        91 R                
 7 Steel Magnolias                 119 PG               
 8 Police Academy                   97 R                
 9 Christine                       110 R                
10 Knight Rider                     51 TV-PG            
# ℹ 5,805 more rows
```
…
Frequently you'll want to create new columns based on the values in existing
columns, for example to do unit conversions, or to find the ratio of values in
two columns. For this we'll use `mutate()`.

We might be interested in knowing the differences in scores on imdb vs tmdb:


```r
movieSerie %>%
  mutate(score_difference = imdb_score - tmdb_score) %>% 
  select(imdb_score, tmdb_score, score_difference)
```

```{.output}
# A tibble: 5,850 × 3
   imdb_score tmdb_score score_difference
        <dbl>      <dbl>            <dbl>
 1       NA        NA             NA     
 2        8.2       8.18           0.0210
 3        7.7       7.3            0.400 
 4        8.2       7.81           0.389 
 5        7.7       7.6            0.100 
 6        8.8       8.31           0.494 
 7        8         7.8            0.200 
 8        7.7       7.5            0.200 
 9        7.7       7.5            0.200 
10        5.8       6.16          -0.356 
# ℹ 5,840 more rows
```
…
```r
movieSerie %>%
    group_by(genre, type) %>%
    summarize(mean_imdb_score = mean(imdb_score, na.rm = TRUE))
```

```{.output}
`summarise()` has grouped output by 'genre'. You can override using the
`.groups` argument.
```

```{.output}
# A tibble: 38 × 3
# Groups:   genre [19]
   genre         type  mean_imdb_score
   <chr>         <chr>           <dbl>
 1 action        MOVIE            5.94
 2 action        SHOW             6.87
 3 animation     MOVIE            6.32
 4 animation     SHOW             6.68
 5 comedy        MOVIE            6.09
 6 comedy        SHOW             6.98
 7 crime         MOVIE            6.39
 8 crime         SHOW             7.09
 9 documentation MOVIE            6.99
10 documentation SHOW             7.18
# ℹ 28 more rows
```
…
```r
movieSerie %>%
    group_by(genre, type) %>%
    summarize(mean_imdb_score = mean(imdb_score, na.rm = TRUE)) %>%
    ungroup()
```

```{.output}
`summarise()` has grouped output by 'genre'. You can override using the
`.groups` argument.
```

```{.output}
# A tibble: 38 × 3
   genre         type  mean_imdb_score
   <chr>         <chr>           <dbl>
 1 action        MOVIE            5.94
 2 action        SHOW             6.87
 3 animation     MOVIE            6.32
 4 animation     SHOW             6.68
 5 comedy        MOVIE            6.09
 6 comedy        SHOW             6.98
 7 crime         MOVIE            6.39
 8 crime         SHOW             7.09
 9 documentation MOVIE            6.99
10 documentation SHOW             7.18
# ℹ 28 more rows
```
…
```r
movieSerie %>%
    group_by(genre, type) %>%
    summarize(mean_imdb_score = mean(imdb_score, na.rm = TRUE),
              max_imdb_score = max(imdb_score, na.rm = TRUE))
```

```{.output}
`summarise()` has grouped output by 'genre'. You can override using the
`.groups` argument.
```

```{.output}
# A tibble: 38 × 4
# Groups:   genre [19]
   genre         type  mean_imdb_score max_imdb_score
   <chr>         <chr>           <dbl>          <dbl>
 1 action        MOVIE            5.94            9.1
 2 action        SHOW             6.87            9  
 3 animation     MOVIE            6.32            9.1
 4 animation     SHOW             6.68            9  
 5 comedy        MOVIE            6.09            8.7
 6 comedy        SHOW             6.98            9.2
 7 crime         MOVIE            6.39            8.6
 8 crime         SHOW             7.09            8.8
 9 documentation MOVIE            6.99            8.9
10 documentation SHOW             7.18            9.3
# ℹ 28 more rows
```
…
```r
movieSerie %>%
    group_by(genre, type) %>%
    summarize(mean_imdb_score = mean(imdb_score, na.rm = TRUE),
              max_imdb_score = max(imdb_score, na.rm = TRUE)) %>%
    arrange(max_imdb_score)
```

```{.output}
`summarise()` has grouped output by 'genre'. You can override using the
`.groups` argument.
```

```{.output}
# A tibble: 38 × 4
# Groups:   genre [19]
   genre   type  mean_imdb_score max_imdb_score
   <chr>   <chr>           <dbl>          <dbl>
 1 music   SHOW             6.3             6.9
 2 horror  SHOW             6.19            7  
 3 sport   MOVIE            6.27            7.4
 4 history MOVIE            6.43            7.5
 5 reality MOVIE            7.15            7.5
 6 western SHOW             7.45            7.6
 7 family  MOVIE            5.81            7.7
 8 fantasy SHOW             6.87            7.7
 9 <NA>    MOVIE            7.1             7.7
10 sport   SHOW             7.9             7.9
# ℹ 28 more rows
```
…
```r
movieSerie %>%
    group_by(genre, type) %>%
    summarize(mean_imdb_score = mean(imdb_score, na.rm = TRUE),
              max_imdb_score = max(imdb_score, na.rm = TRUE)) %>%
    arrange(desc(max_imdb_score))
```

```{.output}
`summarise()` has grouped output by 'genre'. You can override using the
`.groups` argument.
```

```{.output}
# A tibble: 38 × 4
# Groups:   genre [19]
   genre         type  mean_imdb_score max_imdb_score
   <chr>         <chr>           <dbl>          <dbl>
 1 <NA>          SHOW             7.32            9.6
 2 drama         SHOW             7.19            9.5
 3 reality       SHOW             6.31            9.5
 4 documentation SHOW             7.18            9.3
 5 scifi         SHOW             7.08            9.3
 6 comedy        SHOW             6.98            9.2
 7 action        MOVIE            5.94            9.1
 8 animation     MOVIE            6.32            9.1
 9 action        SHOW             6.87            9  
10 animation     SHOW             6.68            9  
# ℹ 28 more rows
```
#### Counting

When working with data, we often want to know the number of observations found
for each factor or combination of factors. For this task, **`dplyr`** provides
`count()`. For example, if we wanted to count the number of rows of data for
each village, we would do:


```r
movieSerie %>%
    count(release_year)
```

```{.output}
# A tibble: 63 × 2
   release_year     n
          <dbl> <int>
 1         1945     1
 2         1954     2
 3         1956     1
 4         1958     1
 5         1959     1
 6         1960     1
 7         1961     1
 8         1963     1
 9         1966     1
10         1967     2
# ℹ 53 more rows
```

For convenience, `count()` provides the `sort` argument to get results in
decreasing order:


```r
movieSerie %>%
    count(release_year, sort = TRUE)
```

```{.output}
# A tibble: 63 × 2
   release_year     n
          <dbl> <int>
 1         2019   836
 2         2020   814
 3         2021   787
 4         2018   773
 5         2017   563
 6         2022   371
 7         2016   362
 8         2015   223
 9         2014   153
10         2013   135
# ℹ 53 more rows
```
…
