Introduction to R: All in One View
…
R

movie_series
## Try also
## view(movie_series)
## head(movie_series)

OUTPUT

# A tibble: 5,850 × 14
   id       title type  genre description release_year age_certification runtime
   <chr>    <chr> <chr> <chr> <chr>              <dbl> <chr>               <dbl>
 1 ts300399 Five… SHOW  docu… "This coll…         1945 "TV-MA"                51
 2 tm84618  Taxi… MOVIE drama "A mentall…         1976 "R"                   114
 3 tm154986 Deli… MOVIE drama "Intent on…         1972 "R"                   109
 4 tm127384 Mont… MOVIE fant… "King Arth…         1975 "PG"                   91
 5 tm120801 The … MOVIE war   "12 Americ…         1967 ""                    150
 6 ts22164  Mont… SHOW  come… "A British…         1969 "TV-14"                30
 7 tm70993  Life… MOVIE come… "Brian Coh…         1979 "R"                    94
 8 tm14873  Dirt… MOVIE thri… "When a ma…         1971 "R"                   102
 9 tm119281 Bonn… MOVIE crime "In the 19…         1967 "R"                   110
10 tm98978  The … MOVIE roma… "Two small…         1980 "R"                   104
# ℹ 5,840 more rows
# ℹ 6 more variables: seasons <dbl>, imdb_id <chr>, imdb_score <dbl>,
#   imdb_votes <dbl>, tmdb_popularity <dbl>, tmdb_score <dbl>
…
## first column of the tibble (as a vector, truncated, rather than showing all 5850 values)
movie_series[[1]] |> head()

OUTPUT

[1] "ts300399" "tm84618"  "tm154986" "tm127384" "tm120801" "ts22164" 

R

## first column of the tibble
movie_series[1]

OUTPUT

# A tibble: 5,850 × 1
   id
   <chr>
 1 ts300399
 2 tm84618
 3 tm154986
 4 tm127384
 5 tm120801
 6 ts22164
 7 tm70993
 8 tm14873
 9 tm119281
10 tm98978
# ℹ 5,840 more rows
…
: is a special operator that creates numeric vectors of
integers in increasing or decreasing order, test 1:10 and
10:1 for instance.

You can also exclude certain indices of a data frame using the
“-” sign:

R

movie_series[, -1]          # The whole tibble, except the first column

OUTPUT

# A tibble: 5,850 × 13
   title  type  genre description release_year age_certification runtime seasons
   <chr>  <chr> <chr> <chr>              <dbl> <chr>               <dbl>   <dbl>
 1 Five … SHOW  docu… "This coll…         1945 "TV-MA"                51       1
 2 Taxi … MOVIE drama "A mentall…         1976 "R"                   114      NA
 3 Deliv… MOVIE drama "Intent on…         1972 "R"                   109      NA
 4 Monty… MOVIE fant… "King Arth…         1975 "PG"                   91      NA
 5 The D… MOVIE war   "12 Americ…         1967 ""                    150      NA
 6 Monty… SHOW  come… "A British…         1969 "TV-14"                30       4
 7 Life … MOVIE come… "Brian Coh…         1979 "R"                    94      NA
 8 Dirty… MOVIE thri… "When a ma…         1971 "R"                   102      NA
 9 Bonni… MOVIE crime "In the 19…         1967 "R"                   110      NA
10 The B… MOVIE roma… "Two small…         1980 "R"                   104      NA
# ℹ 5,840 more rows
# ℹ 5 more variables: imdb_id <chr>, imdb_score <dbl>, imdb_votes <dbl>,
#   tmdb_popularity <dbl>, tmdb_score <dbl>

R

movie_series[-c(7:131), ]   # Equivalent to head(interviews)

OUTPUT

# A tibble: 5,725 × 14
   id       title type  genre description release_year age_certification runtime
   <chr>    <chr> <chr> <chr> <chr>              <dbl> <chr>               <dbl>
 1 ts300399 Five… SHOW  docu… "This coll…         1945 "TV-MA"                51
 2 tm84618  Taxi… MOVIE drama "A mentall…         1976 "R"                   114
 3 tm154986 Deli… MOVIE drama "Intent on…         1972 "R"                   109
 4 tm127384 Mont… MOVIE fant… "King Arth…         1975 "PG"                   91
 5 tm120801 The … MOVIE war   "12 Americ…         1967 ""                    150
 6 ts22164  Mont… SHOW  come… "A British…         1969 "TV-14"                30
 7 tm187791 In t… MOVIE drama "Veteran S…         1993 "R"                   128
 8 tm113576 Litt… MOVIE drama "With thei…         1994 "PG"                  115
 9 tm65686  U.S.… MOVIE thri… "U.S. Mars…         1998 "PG-13"               131
10 ts8570   Barn… SHOW  come… "Barney & …         1992 "TV-G"                 28
# ℹ 5,715 more rows
# ℹ 6 more variables: seasons <dbl>, imdb_id <chr>, imdb_score <dbl>,
#   imdb_votes <dbl>, tmdb_popularity <dbl>, tmdb_score <dbl>
…
R

# to select columns throughout the data frame
select(movie_series, title, description)

OUTPUT

# A tibble: 5,850 × 2
   title                               description
   <chr>                               <chr>
 1 Five Came Back: The Reference Films "This collection includes 12 World War I…
 2 Taxi Driver                         "A mentally unstable Vietnam War veteran…
 3 Deliverance                         "Intent on seeing the Cahulawassee River…
 4 Monty Python and the Holy Grail     "King Arthur, accompanied by his squire,…
 5 The Dirty Dozen                     "12 American military prisoners in World…
 6 Monty Python's Flying Circus        "A British sketch comedy series with the…
 7 Life of Brian                       "Brian Cohen is an average young Jewish …
 8 Dirty Harry                         "When a madman dubbed 'Scorpio' terroriz…
 9 Bonnie and Clyde                    "In the 1930s, bored waitress Bonnie Par…
10 The Blue Lagoon                     "Two small children and a ship's cook su…
# ℹ 5,840 more rows

R

# to select a series of connected columns
select(movie_series, title:description)

OUTPUT

# A tibble: 5,850 × 4
   title                               type  genre         description
   <chr>                               <chr> <chr>         <chr>
 1 Five Came Back: The Reference Films SHOW  documentation "This collection inc…
 2 Taxi Driver                         MOVIE drama         "A mentally unstable…
 3 Deliverance                         MOVIE drama         "Intent on seeing th…
 4 Monty Python and the Holy Grail     MOVIE fantasy       "King Arthur, accomp…
 5 The Dirty Dozen                     MOVIE war           "12 American militar…
 6 Monty Python's Flying Circus        SHOW  comedy        "A British sketch co…
 7 Life of Brian                       MOVIE comedy        "Brian Cohen is an a…
 8 Dirty Harry                         MOVIE thriller      "When a madman dubbe…
 9 Bonnie and Clyde                    MOVIE crime         "In the 1930s, bored…
10 The Blue Lagoon                     MOVIE romance       "Two small children …
# ℹ 5,840 more rows

To choose rows based on specific criteria, we can use the
filter() function. The argument after the data frame is the
condition we want our final data frame to adhere to
(e.g. age_certification is PG-13):

R

# filters observations where age_certification name is "PG-13" 
filter(movie_series, age_certification == "PG-13")

OUTPUT

# A tibble: 451 × 14
   id       title type  genre description release_year age_certification runtime
   <chr>    <chr> <chr> <chr> <chr>              <dbl> <chr>               <dbl>
 1 tm67378  The … MOVIE west… "An arroga…         1966 PG-13                 117
 2 tm145608 Awak… MOVIE drama "Dr. Malco…         1990 PG-13                 120
 3 tm147710 Nati… MOVIE come… "It's Chri…         1989 PG-13                  97
 4 tm142895 Lean… MOVIE drama "When prin…         1989 PG-13                 105
 5 tm107744 Miss… MOVIE thri… "When Etha…         1996 PG-13                 110
 6 tm122434 Forr… MOVIE drama "A man wit…         1994 PG-13                 142
 7 tm191110 Tita… MOVIE drama "101-year-…         1997 PG-13                 194
 8 tm27395  Miss… MOVIE thri… "With comp…         2000 PG-13                 123
 9 tm113513 Dumb… MOVIE come… "Lloyd and…         1994 PG-13                 107
10 tm192405 Gatt… MOVIE scifi "In a futu…         1997 PG-13                 106
# ℹ 441 more rows
# ℹ 6 more variables: seasons <dbl>, imdb_id <chr>, imdb_score <dbl>,
#   imdb_votes <dbl>, tmdb_popularity <dbl>, tmdb_score <dbl>
…
R

# filters observations with "and" operator (comma)
# output data frame satisfies ALL specified conditions
filter(movie_series, age_certification == "PG-13",
                   runtime > 100,
                   imdb_score < 6.0)

OUTPUT

# A tibble: 60 × 14
   id       title type  genre description release_year age_certification runtime
   <chr>    <chr> <chr> <chr> <chr>              <dbl> <chr>               <dbl>
 1 tm12499  The … MOVIE thri… "Angela Be…         1995 PG-13                 114
 2 tm93055  Grow… MOVIE come… "After the…         2010 PG-13                 102
 3 tm159901 Miss… MOVIE acti… "After her…         2005 PG-13                 115
 4 tm88045  How … MOVIE come… "After bei…         2010 PG-13                 121
 5 tm700    10,0… MOVIE acti… "A prehist…         2008 PG-13                 109
 6 tm39487  Catc… MOVIE drama "Gray Whee…         2006 PG-13                 111
 7 tm130574 Did … MOVIE come… "In New Yo…         2009 PG-13                 103
 8 tm148041 What… MOVIE come… "What's Yo…         2009 PG-13                 192
 9 tm237621 The … MOVIE horr… "Two buddi…         2009 PG-13                 122
10 tm59289  Rowd… MOVIE acti… "A small-t…         2012 PG-13                 143
# ℹ 50 more rows
# ℹ 6 more variables: seasons <dbl>, imdb_id <chr>, imdb_score <dbl>,
#   imdb_votes <dbl>, tmdb_popularity <dbl>, tmdb_score <dbl>

We can also form “and” statements with the &
operator instead of commas:

R

# filters observations with "&" logical operator
# output data frame satisfies ALL specified conditions
filter(movie_series, age_certification == "PG-13" & 
                   runtime > 100 & 
                   imdb_score < 6.0)

OUTPUT

# A tibble: 60 × 14
   id       title type  genre description release_year age_certification runtime
   <chr>    <chr> <chr> <chr> <chr>              <dbl> <chr>               <dbl>
 1 tm12499  The … MOVIE thri… "Angela Be…         1995 PG-13                 114
 2 tm93055  Grow… MOVIE come… "After the…         2010 PG-13                 102
 3 tm159901 Miss… MOVIE acti… "After her…         2005 PG-13                 115
 4 tm88045  How … MOVIE come… "After bei…         2010 PG-13                 121
 5 tm700    10,0… MOVIE acti… "A prehist…         2008 PG-13                 109
 6 tm39487  Catc… MOVIE drama "Gray Whee…         2006 PG-13                 111
 7 tm130574 Did … MOVIE come… "In New Yo…         2009 PG-13                 103
 8 tm148041 What… MOVIE come… "What's Yo…         2009 PG-13                 192
 9 tm237621 The … MOVIE horr… "Two buddi…         2009 PG-13                 122
10 tm59289  Rowd… MOVIE acti… "A small-t…         2012 PG-13                 143
# ℹ 50 more rows
# ℹ 6 more variables: seasons <dbl>, imdb_id <chr>, imdb_score <dbl>,
#   imdb_votes <dbl>, tmdb_popularity <dbl>, tmdb_score <dbl>
In an “or” statement, observations must meet at least one of
the specified conditions. To form “or” statements we use the logical
operator for “or,” which is the vertical bar (|):

R

# filters observations with "|" logical operator
# output data frame satisfies AT LEAST ONE of the specified conditions
filter(movie_series, age_certification == "PG-13" | 
                   runtime > 100 | 
                   imdb_score < 6.0)

OUTPUT

# A tibble: 2,852 × 14
   id       title type  genre description release_year age_certification runtime
   <chr>    <chr> <chr> <chr> <chr>              <dbl> <chr>               <dbl>
 1 tm84618  Taxi… MOVIE drama A mentally…         1976 "R"                   114
 2 tm154986 Deli… MOVIE drama Intent on …         1972 "R"                   109
 3 tm120801 The … MOVIE war   12 America…         1967 ""                    150
 4 tm14873  Dirt… MOVIE thri… When a mad…         1971 "R"                   102
 5 tm119281 Bonn… MOVIE crime In the 193…         1967 "R"                   110
 6 tm98978  The … MOVIE roma… Two small …         1980 "R"                   104
 7 tm44204  The … MOVIE acti… A team of …         1961 ""                    158
 8 tm67378  The … MOVIE west… An arrogan…         1966 "PG-13"               117
 9 tm16479  Whit… MOVIE roma… Two talent…         1954 ""                    115
10 tm89386  Hitl… MOVIE hist… A keen chr…         1977 "PG"                  150
# ℹ 2,842 more rows
# ℹ 6 more variables: seasons <dbl>, imdb_id <chr>, imdb_score <dbl>,
#   imdb_votes <dbl>, tmdb_popularity <dbl>, tmdb_score <dbl>
…
A previous incarnation looks like %>%. Both pipes
work the exact same way.

If you are using Positron, the above keyboard shortcuts will result
in |>.

R

movie_series |> 
    filter(age_certification == "PG-13") |> 
    select(title,description)

OUTPUT

# A tibble: 451 × 2
   title                                 description
   <chr>                                 <chr>
 1 The Professionals                     "An arrogant Texas millionaire hires f…
 2 Awakenings                            "Dr. Malcolm Sayer, a shy research phy…
 3 National Lampoon's Christmas Vacation "It's Christmastime, and the Griswolds…
 4 Lean On Me                            "When principal Joe Clark takes over d…
 5 Mission: Impossible                   "When Ethan Hunt, the leader of a crac…
 6 Forrest Gump                          "A man with a low IQ has accomplished …
 7 Titanic                               "101-year-old Rose DeWitt Bukater tell…
 8 Mission: Impossible II                "With computer genius Luther Stickell …
 9 Dumb and Dumber                       "Lloyd and Harry are two men whose stu…
10 Gattaca                               "In a future society in the era of ind…
# ℹ 441 more rows
…
If we want to create a new object with this smaller version of the
data, we can assign it a new name:

R

movie_series_ch <- movie_series |> 
    filter(age_certification == "PG-13") |> 
    select(title,description)

movie_series_ch

OUTPUT

# A tibble: 451 × 2
   title                                 description
   <chr>                                 <chr>
 1 The Professionals                     "An arrogant Texas millionaire hires f…
 2 Awakenings                            "Dr. Malcolm Sayer, a shy research phy…
 3 National Lampoon's Christmas Vacation "It's Christmastime, and the Griswolds…
 4 Lean On Me                            "When principal Joe Clark takes over d…
 5 Mission: Impossible                   "When Ethan Hunt, the leader of a crac…
 6 Forrest Gump                          "A man with a low IQ has accomplished …
 7 Titanic                               "101-year-old Rose DeWitt Bukater tell…
 8 Mission: Impossible II                "With computer genius Luther Stickell …
 9 Dumb and Dumber                       "Lloyd and Harry are two men whose stu…
10 Gattaca                               "In a future society in the era of ind…
# ℹ 441 more rows
…
   Show me the solution 

R

movie_series |> 
     filter(release_year > 1980) |> 
     select(title, runtime, age_certification)

OUTPUT

# A tibble: 5,815 × 3
   title                       runtime age_certification
   <chr>                         <dbl> <chr>
 1 Seinfeld                         24 TV-PG
 2 GoodFellas                      145 R
 3 Full Metal Jacket               117 R
 4 Once Upon a Time in America     139 R
 5 When Harry Met Sally...          96 R
 6 A Nightmare on Elm Street        91 R
 7 Steel Magnolias                 119 PG
 8 Police Academy                   97 R
 9 Christine                       110 R
10 Knight Rider                     51 TV-PG
# ℹ 5,805 more rows
…
We might be interested in knowing the differences in scores on imdb
vs tmdb:

R

movie_series |> 
  mutate(score_difference = imdb_score - tmdb_score) |> 
  select(imdb_score, tmdb_score, score_difference)

OUTPUT

# A tibble: 5,850 × 3
   imdb_score tmdb_score score_difference
        <dbl>      <dbl>            <dbl>
 1       NA        NA             NA
 2        8.2       8.18           0.0210
 3        7.7       7.3            0.400
 4        8.2       7.81           0.389
 5        7.7       7.6            0.100
 6        8.8       8.31           0.494
 7        8         7.8            0.200
 8        7.7       7.5            0.200
 9        7.7       7.5            0.200
10        5.8       6.16          -0.356
# ℹ 5,840 more rows
…
OUTPUT

`summarise()` has regrouped the output.
ℹ Summaries were computed grouped by genre and type.
ℹ Output is grouped by genre.
ℹ Use `summarise(.groups = "drop_last")` to silence this message.
ℹ Use `summarise(.by = c(genre, type))` for per-operation grouping
  (`?dplyr::dplyr_by`) instead.

OUTPUT

# A tibble: 38 × 3
# Groups:   genre [19]
   genre         type  mean_imdb_score
   <chr>         <chr>           <dbl>
 1 action        MOVIE            5.94
 2 action        SHOW             6.87
 3 animation     MOVIE            6.32
 4 animation     SHOW             6.68
 5 comedy        MOVIE            6.09
 6 comedy        SHOW             6.98
 7 crime         MOVIE            6.39
 8 crime         SHOW             7.09
 9 documentation MOVIE            6.99
10 documentation SHOW             7.18
# ℹ 28 more rows
…
OUTPUT

`summarise()` has regrouped the output.
ℹ Summaries were computed grouped by genre and type.
ℹ Output is grouped by genre.
ℹ Use `summarise(.groups = "drop_last")` to silence this message.
ℹ Use `summarise(.by = c(genre, type))` for per-operation grouping
  (`?dplyr::dplyr_by`) instead.

OUTPUT

# A tibble: 38 × 3
   genre         type  mean_imdb_score
   <chr>         <chr>           <dbl>
 1 action        MOVIE            5.94
 2 action        SHOW             6.87
 3 animation     MOVIE            6.32
 4 animation     SHOW             6.68
 5 comedy        MOVIE            6.09
 6 comedy        SHOW             6.98
 7 crime         MOVIE            6.39
 8 crime         SHOW             7.09
 9 documentation MOVIE            6.99
10 documentation SHOW             7.18
# ℹ 28 more rows
…
OUTPUT

`summarise()` has regrouped the output.
ℹ Summaries were computed grouped by genre and type.
ℹ Output is grouped by genre.
ℹ Use `summarise(.groups = "drop_last")` to silence this message.
ℹ Use `summarise(.by = c(genre, type))` for per-operation grouping
  (`?dplyr::dplyr_by`) instead.

OUTPUT

# A tibble: 38 × 4
# Groups:   genre [19]
   genre         type  mean_imdb_score max_imdb_score
   <chr>         <chr>           <dbl>          <dbl>
 1 action        MOVIE            5.94            9.1
 2 action        SHOW             6.87            9
 3 animation     MOVIE            6.32            9.1
 4 animation     SHOW             6.68            9
 5 comedy        MOVIE            6.09            8.7
 6 comedy        SHOW             6.98            9.2
 7 crime         MOVIE            6.39            8.6
 8 crime         SHOW             7.09            8.8
 9 documentation MOVIE            6.99            8.9
10 documentation SHOW             7.18            9.3
# ℹ 28 more rows
…
OUTPUT

`summarise()` has regrouped the output.
ℹ Summaries were computed grouped by genre and type.
ℹ Output is grouped by genre.
ℹ Use `summarise(.groups = "drop_last")` to silence this message.
ℹ Use `summarise(.by = c(genre, type))` for per-operation grouping
  (`?dplyr::dplyr_by`) instead.

OUTPUT

# A tibble: 38 × 4
# Groups:   genre [19]
   genre   type  mean_imdb_score max_imdb_score
   <chr>   <chr>           <dbl>          <dbl>
 1 music   SHOW             6.3             6.9
 2 horror  SHOW             6.19            7
 3 sport   MOVIE            6.27            7.4
 4 history MOVIE            6.43            7.5
 5 reality MOVIE            7.15            7.5
 6 western SHOW             7.45            7.6
 7 family  MOVIE            5.81            7.7
 8 fantasy SHOW             6.87            7.7
 9 <NA>    MOVIE            7.1             7.7
10 sport   SHOW             7.9             7.9
# ℹ 28 more rows
…
