Introduction to R: Starting with Data
…
R

movie_series
## Try also
## view(movie_series)
## head(movie_series)

OUTPUT

# A tibble: 5,850 × 14
   id       title type  genre description release_year age_certification runtime
   <chr>    <chr> <chr> <chr> <chr>              <dbl> <chr>               <dbl>
 1 ts300399 Five… SHOW  docu… "This coll…         1945 "TV-MA"                51
 2 tm84618  Taxi… MOVIE drama "A mentall…         1976 "R"                   114
 3 tm154986 Deli… MOVIE drama "Intent on…         1972 "R"                   109
 4 tm127384 Mont… MOVIE fant… "King Arth…         1975 "PG"                   91
 5 tm120801 The … MOVIE war   "12 Americ…         1967 ""                    150
 6 ts22164  Mont… SHOW  come… "A British…         1969 "TV-14"                30
 7 tm70993  Life… MOVIE come… "Brian Coh…         1979 "R"                    94
 8 tm14873  Dirt… MOVIE thri… "When a ma…         1971 "R"                   102
 9 tm119281 Bonn… MOVIE crime "In the 19…         1967 "R"                   110
10 tm98978  The … MOVIE roma… "Two small…         1980 "R"                   104
# ℹ 5,840 more rows
# ℹ 6 more variables: seasons <dbl>, imdb_id <chr>, imdb_score <dbl>,
#   imdb_votes <dbl>, tmdb_popularity <dbl>, tmdb_score <dbl>
…
## first column of the tibble (as a vector, truncated, rather than showing all 5850 values)
movie_series[[1]] |> head()

OUTPUT

[1] "ts300399" "tm84618"  "tm154986" "tm127384" "tm120801" "ts22164" 

R

## first column of the tibble
movie_series[1]

OUTPUT

# A tibble: 5,850 × 1
   id
   <chr>
 1 ts300399
 2 tm84618
 3 tm154986
 4 tm127384
 5 tm120801
 6 ts22164
 7 tm70993
 8 tm14873
 9 tm119281
10 tm98978
# ℹ 5,840 more rows
…
: is a special operator that creates numeric vectors of
integers in increasing or decreasing order, test 1:10 and
10:1 for instance.

You can also exclude certain indices of a data frame using the
“-” sign:

R

movie_series[, -1]          # The whole tibble, except the first column

OUTPUT

# A tibble: 5,850 × 13
   title  type  genre description release_year age_certification runtime seasons
   <chr>  <chr> <chr> <chr>              <dbl> <chr>               <dbl>   <dbl>
 1 Five … SHOW  docu… "This coll…         1945 "TV-MA"                51       1
 2 Taxi … MOVIE drama "A mentall…         1976 "R"                   114      NA
 3 Deliv… MOVIE drama "Intent on…         1972 "R"                   109      NA
 4 Monty… MOVIE fant… "King Arth…         1975 "PG"                   91      NA
 5 The D… MOVIE war   "12 Americ…         1967 ""                    150      NA
 6 Monty… SHOW  come… "A British…         1969 "TV-14"                30       4
 7 Life … MOVIE come… "Brian Coh…         1979 "R"                    94      NA
 8 Dirty… MOVIE thri… "When a ma…         1971 "R"                   102      NA
 9 Bonni… MOVIE crime "In the 19…         1967 "R"                   110      NA
10 The B… MOVIE roma… "Two small…         1980 "R"                   104      NA
# ℹ 5,840 more rows
# ℹ 5 more variables: imdb_id <chr>, imdb_score <dbl>, imdb_votes <dbl>,
#   tmdb_popularity <dbl>, tmdb_score <dbl>

R

movie_series[-c(7:131), ]   # Equivalent to head(interviews)

OUTPUT

# A tibble: 5,725 × 14
   id       title type  genre description release_year age_certification runtime
   <chr>    <chr> <chr> <chr> <chr>              <dbl> <chr>               <dbl>
 1 ts300399 Five… SHOW  docu… "This coll…         1945 "TV-MA"                51
 2 tm84618  Taxi… MOVIE drama "A mentall…         1976 "R"                   114
 3 tm154986 Deli… MOVIE drama "Intent on…         1972 "R"                   109
 4 tm127384 Mont… MOVIE fant… "King Arth…         1975 "PG"                   91
 5 tm120801 The … MOVIE war   "12 Americ…         1967 ""                    150
 6 ts22164  Mont… SHOW  come… "A British…         1969 "TV-14"                30
 7 tm187791 In t… MOVIE drama "Veteran S…         1993 "R"                   128
 8 tm113576 Litt… MOVIE drama "With thei…         1994 "PG"                  115
 9 tm65686  U.S.… MOVIE thri… "U.S. Mars…         1998 "PG-13"               131
10 ts8570   Barn… SHOW  come… "Barney & …         1992 "TV-G"                 28
# ℹ 5,715 more rows
# ℹ 6 more variables: seasons <dbl>, imdb_id <chr>, imdb_score <dbl>,
#   imdb_votes <dbl>, tmdb_popularity <dbl>, tmdb_score <dbl>
…
